%YAML 1.1
%TAG !u! tag:unity3d.com,2011:
--- !u!1045 &1
EditorBuildSettings:
  m_ObjectHideFlags: 0
  serializedVersion: 2
  m_Scenes:
  - enabled: 1
    path: Assets/Scenes/Level 1.unity
    guid: 9fc0d4010bbf28b4594072e72b8655ab
  - enabled: 1
    path: Assets/Scenes/Level 2.unity
    guid: f29bcc74365f58d449764268f167ef21
  - enabled: 1
    path: Assets/Scenes/Level 3.unity
    guid: a2a626c66c3096740abfc05ec5de48d7
  m_configObjects: {}
